nID;sName
1;Державні органи‚ що забезпечують здійснення повноважень Президента України ВРУ та КМУ:
2;Інші державні органи
3;Колегіальні органи
4;Координуючі, наукові, консультативні та дорадчі органи
5;Міністерства
6;Місцеві державні адміністрації
7;Органи судової влади та прокуратури
8;Суд 
10;Центральні органи виконавчої влади
11;Центральні органи виконавчої влади зі спеціальним статусом
